GIT PAT : glpat-yRSK-StkVuM_J_qCqJ4c


/public_html/uniabroad/staffportal/ - root path in server

https://hpanel.hostinger.com/hosting/onine.io/ - hosting URL



-----------------------
https://staffportal.uniabroad.co.in/Students - 500 error for admin user - Permission issue. Cred - admin@uniabroad.co.in - PW -1212121212 - p1

ask drshn whether its stage or prod

---------------------------

register page giving 404 error - p2


------------------------------------------

stage : staffportal.onine.io
prod : staffportal.uniabroad.co.in

